{
"product": {
    "name" : "Sounth indian goats for sale",
    "description": "Farm raised healthy goats for sale",
    "seller" : "5eebc6ff-245d-451c-9c78-07a5285a3f70",
    "categorytype": 1,
    "category": 1,
    "breed": 2,
    "pickup": "5e8afb59-a2d7-4aac-bf51-9d5f6cf63b7f",
    "city": "be91ccc2-c547-4506-ae27-5c30b79d0536",
    "state": "7729d94a-e967-4c18-8649-b436a1e68095",    
    "created_by" : "5eebc6ff-245d-451c-9c78-07a5285a3f70"    
},
"product_variant":
[
    {
        "age": 1,
        "gender": 1,
        "feedtype": 1,
        "stock": 10,
        "adult_teeth_pair_count": 1,
        "original_price": 1500,
        "discount": "",
        "offer_price": 1200,
        "weight": 23.5,
        "color": 2,
        "is_pregnant": false,
        "milk_produce_per_Day": 0,
        "no_of_offsprings": 0
    }
],
"vaccines": [
    {
        "vaccine": "4e05f360-1c68-4dda-9337-d9f9b8631a9f",
        "completed_dose": 2,
        "vaccinated_on": "2021-06-12 06:00"
     },
     {
        "vaccine":  "169e1dbc-d612-4961-a50f-52d7732c4360",
        "completed_dose": 2,
        "vaccinated_on": "2021-06-12 06:00"
     }
]
}